{
    "name": "yenmoc@alpha_raycaster.editor",
    "references": [
        "GUID:a35d9b93e2d0d9144b0d21a7336ce984"
    ],
    "optionalUnityReferences": [],
    "includePlatforms": [
        "Editor"
    ],
    "excludePlatforms": [],
    "allowUnsafeCode": false,
    "overrideReferences": false,
    "precompiledReferences": [],
    "autoReferenced": true,
    "defineConstraints": [],
    "versionDefines": []
}